{"failedCount":0,"prefixedPath":"src\/test\/java\/test\/FirstApiTest.feature","packageQualifiedName":"src.test.java.test.FirstApiTest","loopIndex":-1,"relativePath":"src\/test\/java\/test\/FirstApiTest.feature","scenarioResults":[{"sectionIndex":0,"stepResults":[{"result":{"nanos":36104122,"millis":36.104122,"status":"passed"},"step":{"line":6,"prefix":"Given","index":0,"text":"url 'https:\/\/reqres.in\/api\/users?page=2'"}},{"result":{"nanos":430706697,"millis":430.706697,"status":"passed"},"step":{"line":7,"prefix":"When","index":1,"text":"method Get"},"stepLog":"10:58:35.082 request:\n1 > GET https:\/\/reqres.in\/api\/users?page=2\n1 > Host: reqres.in\n1 > Connection: Keep-Alive\n1 > User-Agent: Apache-HttpClient\/4.5.14 (Java\/17.0.7)\n1 > Accept-Encoding: gzip,deflate\n\n\n10:58:35.384 response time in milliseconds: 298\n1 < 200\n1 < Date: Wed, 09 Aug 2023 09:58:35 GMT\n1 < Content-Type: application\/json; charset=utf-8\n1 < Transfer-Encoding: chunked\n1 < Connection: keep-alive\n1 < X-Powered-By: Express\n1 < Access-Control-Allow-Origin: *\n1 < Etag: W\/\"406-ut0vzoCuidvyMf8arZpMpJ6ZRDw\"\n1 < Via: 1.1 vegur\n1 < Cache-Control: max-age=14400\n1 < CF-Cache-Status: HIT\n1 < Age: 6804\n1 < Report-To: {\"endpoints\":[{\"url\":\"https:\\\/\\\/a.nel.cloudflare.com\\\/report\\\/v3?s=oj6HyNIkb3pBacL0jkmngwmGM%2BwFLjQkKc5x2qFL7iMo%2F10fwHF%2FCGgz6djuoW0ne2wkpsagWev047VxZ9sOBtd8mnhRAPm%2Fb8LCAh7Y7POy303kPE10TVrBNw%3D%3D\"}],\"group\":\"cf-nel\",\"max_age\":604800}\n1 < NEL: {\"success_fraction\":0,\"report_to\":\"cf-nel\",\"max_age\":604800}\n1 < Vary: Accept-Encoding\n1 < Server: cloudflare\n1 < CF-RAY: 7f3f2436fb800e65-MXP\n{\"page\":2,\"per_page\":6,\"total\":12,\"total_pages\":2,\"data\":[{\"id\":7,\"email\":\"michael.lawson@reqres.in\",\"first_name\":\"Michael\",\"last_name\":\"Lawson\",\"avatar\":\"https:\/\/reqres.in\/img\/faces\/7-image.jpg\"},{\"id\":8,\"email\":\"lindsay.ferguson@reqres.in\",\"first_name\":\"Lindsay\",\"last_name\":\"Ferguson\",\"avatar\":\"https:\/\/reqres.in\/img\/faces\/8-image.jpg\"},{\"id\":9,\"email\":\"tobias.funke@reqres.in\",\"first_name\":\"Tobias\",\"last_name\":\"Funke\",\"avatar\":\"https:\/\/reqres.in\/img\/faces\/9-image.jpg\"},{\"id\":10,\"email\":\"byron.fields@reqres.in\",\"first_name\":\"Byron\",\"last_name\":\"Fields\",\"avatar\":\"https:\/\/reqres.in\/img\/faces\/10-image.jpg\"},{\"id\":11,\"email\":\"george.edwards@reqres.in\",\"first_name\":\"George\",\"last_name\":\"Edwards\",\"avatar\":\"https:\/\/reqres.in\/img\/faces\/11-image.jpg\"},{\"id\":12,\"email\":\"rachel.howell@reqres.in\",\"first_name\":\"Rachel\",\"last_name\":\"Howell\",\"avatar\":\"https:\/\/reqres.in\/img\/faces\/12-image.jpg\"}],\"support\":{\"url\":\"https:\/\/reqres.in\/#support-heading\",\"text\":\"To keep ReqRes free, contributions towards server costs are appreciated!\"}}\n\n"},{"result":{"nanos":15179,"millis":0.015179,"status":"passed"},"step":{"line":8,"prefix":"Then","index":2,"text":"status 200"}}],"executorName":"main","line":5,"name":"Hello world scenario","description":"","durationMillis":466.825998,"startTime":1691575114920,"failed":false,"refId":"[1:5]","endTime":1691575115394,"exampleIndex":-1}],"callDepth":0,"name":"First Api testing","description":"","resultDate":"2023-08-09 10:58:35 AM","durationMillis":466.825998,"passedCount":1}